<svg width="16" height="16" viewBox="0 0 16 16" fill="none" xmlns="http://www.w3.org/2000/svg">
<path fill-rule="evenodd" clip-rule="evenodd" d="M7.56132 0L16 8.00004L7.56132 16L6.62218 15.1097L13.4576 8.62961H0L0 7.37046L13.4576 7.37046L6.62218 0.890319L7.56132 0Z" fill="black"/>
</svg>
